{
  "name": "imbitious-community",
  "description": "Imbitious community bot",
  "options": [
    {
      "name": "poll",
      "description": "Create a poll",
      "type": 1,
      "required": false,
      "remove": false
    }
  ]
}